{
  "swagger": "2.0",
  "info": {
    "description": "Spring Boot REST API for haybeach",
    "version": "1.0",
    "title": "Lab1886 haybeach",
    "termsOfService": "Terms of service",
    "contact": {
      "name": "vishwas gopala",
      "email": "vishwas.gang2006@gmail.com"
    },
    "license": {
      "name": "Free to use"
    }
  },
  "host": "localhost:8080",
  "basePath": "/",
  "tags": [
    {
      "name": "hash-tag-controller",
      "description": "Upload images with hastags."
    },
    {
      "name": "upload-pics-controller",
      "description": "Upload images with hastags."
    },
    {
      "name": "user-reg-controller",
      "description": "Register Admin and psu users."
    }
  ],
  "paths": {
    "/all/hashtag": {
      "get": {
        "tags": [
          "hash-tag-controller"
        ],
        "summary": "Gets all hashtags from db. Should be a PSU user.",
        "operationId": "allhashtagUsingGET",
        "consumes": [
          "application/json"
        ],
        "produces": [
          "*/*"
        ],
        "responses": {
          "200": {
            "description": "OK",
            "schema": {
              "type": "array",
              "items": {
                "type": "string"
              }
            }
          },
          "401": {
            "description": "Unauthorized"
          },
          "403": {
            "description": "Forbidden"
          },
          "404": {
            "description": "Not Found"
          }
        }
      }
    },
    "/downloadImage/{fileName}": {
      "get": {
        "tags": [
          "upload-pics-controller"
        ],
        "summary": "Downloads images with hashtags. Should be a PSU user.",
        "operationId": "downloadFileUsingGET",
        "consumes": [
          "application/json"
        ],
        "produces": [
          "*/*"
        ],
        "parameters": [
          {
            "name": "fileName",
            "in": "path",
            "description": "fileName",
            "required": true,
            "type": "string"
          },
          {
            "in": "body",
            "name": "username",
            "description": "username",
            "required": false,
            "schema": {
              "type": "string"
            }
          }
        ],
        "responses": {
          "200": {
            "description": "OK",
            "schema": {
              "$ref": "#/definitions/Resource"
            }
          },
          "401": {
            "description": "Unauthorized"
          },
          "403": {
            "description": "Forbidden"
          },
          "404": {
            "description": "Not Found"
          }
        }
      }
    },
    "/hashtag": {
      "get": {
        "tags": [
          "hash-tag-controller"
        ],
        "summary": "Gets all hashtags from cache. Should be a PSU user.",
        "operationId": "hashtagUsingGET",
        "consumes": [
          "application/json"
        ],
        "produces": [
          "*/*"
        ],
        "responses": {
          "200": {
            "description": "OK",
            "schema": {
              "type": "array",
              "items": {
                "type": "string"
              }
            }
          },
          "401": {
            "description": "Unauthorized"
          },
          "403": {
            "description": "Forbidden"
          },
          "404": {
            "description": "Not Found"
          }
        }
      }
    },
    "/uploadImage": {
      "post": {
        "tags": [
          "upload-pics-controller"
        ],
        "summary": "Uploads images with hashtags. Should be a PSU user.",
        "operationId": "uploadFileUsingPOST",
        "consumes": [
          "multipart/form-data"
        ],
        "produces": [
          "*/*"
        ],
        "parameters": [
          {
            "name": "image",
            "in": "formData",
            "description": "image",
            "required": true,
            "type": "file"
          },
          {
            "name": "hashtag",
            "in": "query",
            "description": "hashtag",
            "required": true,
            "type": "string"
          },
          {
            "in": "body",
            "name": "username",
            "description": "username",
            "required": false,
            "schema": {
              "type": "string"
            }
          }
        ],
        "responses": {
          "200": {
            "description": "OK",
            "schema": {
              "$ref": "#/definitions/UploadFileResponse"
            }
          },
          "201": {
            "description": "Created"
          },
          "401": {
            "description": "Unauthorized"
          },
          "403": {
            "description": "Forbidden"
          },
          "404": {
            "description": "Not Found"
          }
        }
      }
    },
    "/user/registration": {
      "post": {
        "tags": [
          "user-reg-controller"
        ],
        "summary": "Creates PSU users.",
        "operationId": "saveUserUsingPOST",
        "consumes": [
          "application/json"
        ],
        "produces": [
          "*/*"
        ],
        "parameters": [
          {
            "in": "body",
            "name": "userDto",
            "description": "userDto",
            "required": true,
            "schema": {
              "$ref": "#/definitions/UserDto"
            }
          }
        ],
        "responses": {
          "200": {
            "description": "OK",
            "schema": {
              "$ref": "#/definitions/UserDto"
            }
          },
          "201": {
            "description": "Created"
          },
          "401": {
            "description": "Unauthorized"
          },
          "403": {
            "description": "Forbidden"
          },
          "404": {
            "description": "Not Found"
          }
        }
      },
      "delete": {
        "tags": [
          "user-reg-controller"
        ],
        "summary": "Deletes users. Should be a SYS/AD.",
        "operationId": "deleteUsingDELETE",
        "consumes": [
          "application/json"
        ],
        "produces": [
          "*/*"
        ],
        "parameters": [
          {
            "name": "username",
            "in": "query",
            "description": "username",
            "required": true,
            "type": "string"
          }
        ],
        "responses": {
          "200": {
            "description": "OK"
          },
          "401": {
            "description": "Unauthorized"
          },
          "204": {
            "description": "No Content"
          },
          "403": {
            "description": "Forbidden"
          }
        }
      }
    },
    "/user/registration/admin": {
      "post": {
        "tags": [
          "user-reg-controller"
        ],
        "summary": "Creates Admin users. Should be a SYS.",
        "operationId": "saveAdminUserUsingPOST",
        "consumes": [
          "application/json"
        ],
        "produces": [
          "*/*"
        ],
        "parameters": [
          {
            "in": "body",
            "name": "userDto",
            "description": "userDto",
            "required": true,
            "schema": {
              "$ref": "#/definitions/UserDto"
            }
          }
        ],
        "responses": {
          "200": {
            "description": "OK",
            "schema": {
              "$ref": "#/definitions/UserDto"
            }
          },
          "201": {
            "description": "Created"
          },
          "401": {
            "description": "Unauthorized"
          },
          "403": {
            "description": "Forbidden"
          },
          "404": {
            "description": "Not Found"
          }
        }
      }
    }
  },
  "definitions": {
    "InputStream": {
      "type": "object"
    },
    "UserDto": {
      "type": "object",
      "properties": {
        "firstName": {
          "type": "string"
        },
        "lastName": {
          "type": "string"
        },
        "password": {
          "type": "string"
        },
        "username": {
          "type": "string"
        }
      }
    },
    "Resource": {
      "type": "object",
      "properties": {
        "description": {
          "type": "string"
        },
        "file": {
          "type": "file"
        },
        "filename": {
          "type": "string"
        },
        "inputStream": {
          "$ref": "#/definitions/InputStream"
        },
        "open": {
          "type": "boolean"
        },
        "readable": {
          "type": "boolean"
        },
        "uri": {
          "$ref": "#/definitions/URI"
        },
        "url": {
          "$ref": "#/definitions/URL"
        }
      }
    },
    "File": {
      "type": "object",
      "properties": {
        "absolute": {
          "type": "boolean"
        },
        "absoluteFile": {
          "type": "file"
        },
        "absolutePath": {
          "type": "string"
        },
        "canonicalFile": {
          "type": "file"
        },
        "canonicalPath": {
          "type": "string"
        },
        "directory": {
          "type": "boolean"
        },
        "file": {
          "type": "boolean"
        },
        "freeSpace": {
          "type": "integer",
          "format": "int64"
        },
        "hidden": {
          "type": "boolean"
        },
        "name": {
          "type": "string"
        },
        "parent": {
          "type": "string"
        },
        "parentFile": {
          "type": "file"
        },
        "path": {
          "type": "string"
        },
        "totalSpace": {
          "type": "integer",
          "format": "int64"
        },
        "usableSpace": {
          "type": "integer",
          "format": "int64"
        }
      }
    },
    "URI": {
      "type": "object",
      "properties": {
        "absolute": {
          "type": "boolean"
        },
        "authority": {
          "type": "string"
        },
        "fragment": {
          "type": "string"
        },
        "host": {
          "type": "string"
        },
        "opaque": {
          "type": "boolean"
        },
        "path": {
          "type": "string"
        },
        "port": {
          "type": "integer",
          "format": "int32"
        },
        "query": {
          "type": "string"
        },
        "rawAuthority": {
          "type": "string"
        },
        "rawFragment": {
          "type": "string"
        },
        "rawPath": {
          "type": "string"
        },
        "rawQuery": {
          "type": "string"
        },
        "rawSchemeSpecificPart": {
          "type": "string"
        },
        "rawUserInfo": {
          "type": "string"
        },
        "scheme": {
          "type": "string"
        },
        "schemeSpecificPart": {
          "type": "string"
        },
        "userInfo": {
          "type": "string"
        }
      }
    },
    "UploadFileResponse": {
      "type": "object",
      "properties": {
        "fileDownloadUri": {
          "type": "string"
        },
        "fileName": {
          "type": "string"
        },
        "fileType": {
          "type": "string"
        },
        "size": {
          "type": "integer",
          "format": "int64"
        }
      }
    },
    "URL": {
      "type": "object",
      "properties": {
        "authority": {
          "type": "string"
        },
        "content": {
          "type": "object"
        },
        "defaultPort": {
          "type": "integer",
          "format": "int32"
        },
        "file": {
          "type": "string"
        },
        "host": {
          "type": "string"
        },
        "path": {
          "type": "string"
        },
        "port": {
          "type": "integer",
          "format": "int32"
        },
        "protocol": {
          "type": "string"
        },
        "query": {
          "type": "string"
        },
        "ref": {
          "type": "string"
        },
        "userInfo": {
          "type": "string"
        }
      }
    }
  }
}